{
	"defaultSeverity": "error",
	"extends": ["tslint:recommended"],
	"jsRules": {
		"no-unused-expression": true
	},
	"rules": {
		"arrow-parens": false,
		"arrow-return-shorthand": true,
		"callable-types": true,
		"class-name": true,
		"comment-format": [true, "check-space"],
		"curly": true,
		"deprecation": false,
		"eofline": true,
		"forin": true,
		"import-blacklist": [true, "rxjs/Rx"],
		"import-spacing": true,
		"indent": [true, "tabs"],
		"interface-name": [false],
		"interface-over-type-literal": false,
		"label-position": true,
		"max-classes-per-file": false,
		"max-line-length": [true, 140],
		"member-access": false,
		"member-ordering": [true, { "order": ["static-field", "static-method", "instance-field", "instance-method"] }],
		"no-arg": true,
		"no-bitwise": false,
		"no-console": [true, "time", "timeEnd", "trace"],
		"no-construct": true,
		"no-debugger": true,
		"no-duplicate-super": true,
		"no-empty-interface": false,
		"no-empty": false,
		"no-eval": true,
		"no-inferrable-types": [false, "ignore-params"],
		"no-misused-new": true,
		"no-namespace": false,
		"no-non-null-assertion": false,
		"no-shadowed-variable": false,
		"no-string-literal": false,
		"no-string-throw": true,
		"no-switch-case-fall-through": true,
		"no-trailing-whitespace": true,
		"no-unnecessary-initializer": true,
		"no-unused-expression": true,
		"no-var-keyword": true,
		"only-arrow-functions": false,
		"object-literal-key-quotes": false,
		"object-literal-sort-keys": false,
		"one-line": [true, "check-open-brace", "check-catch", "check-else", "check-whitespace"],
		"one-variable-per-declaration": false,
		"ordered-imports": [false],
		"prefer-const": true,
		"quotemark": [true, "single"],
		"radix": true,
		"semicolon": [true, "always"],
		"triple-equals": [true, "allow-null-check"],
		"typedef-whitespace": [
			true,
			{
				"call-signature": "nospace",
				"index-signature": "nospace",
				"parameter": "nospace",
				"property-declaration": "nospace",
				"variable-declaration": "nospace"
			}
		],
		"unified-signatures": true,
		"variable-name": false,
		"whitespace": [true, "check-branch", "check-operator", "check-separator", "check-type"]
	},
	"rulesDirectory": []
}
